Action: 30  Q-values: [-298.52817 -293.6181  -299.23453 -288.52853 -286.8752  -293.48993
 -294.79395 -306.81555 -298.35757 -298.98776 -304.06473 -299.01605
 -295.3153  -293.0578  -303.19516 -291.76123 -291.79868 -299.15204
 -295.77377 -301.1053  -298.1756  -308.49896 -296.35992 -296.0792
 -294.89774 -294.773   -284.25394 -295.36865 -289.62225 -280.83163
 -288.1139  -313.0161  -296.6258  -286.4376  -300.5815  -293.8756
 -293.33615 -290.43408 -291.66876 -287.13376]
Action: 4  Q-values: [-285.10147 -289.14426 -292.71103 -281.5438  -288.0234  -292.2901
 -289.62488 -299.7525  -304.3755  -293.54144 -292.13297 -295.97733
 -293.82098 -297.1499  -297.11868 -300.8888  -286.59775 -292.4563
 -295.1502  -300.51437 -301.13116 -295.97556 -292.6469  -296.22128
 -303.69495 -293.2422  -290.55875 -310.27902 -298.1368  -355.12558
 -284.04504 -311.6042  -295.30154 -286.40942 -307.42654 -311.8901
 -293.97156 -307.96722 -308.23233 -298.18405]
Action: 26  Q-values: [-298.8746  -299.809   -302.06845 -340.34686 -288.55698 -300.35556
 -303.46152 -312.86172 -307.66022 -302.8171  -303.0986  -302.21582
 -301.25543 -301.4977  -314.16473 -309.459   -294.47653 -297.73474
 -291.6957  -300.17728 -297.6179  -303.32098 -286.8073  -289.66937
 -292.50632 -284.7613  -286.87277 -295.15417 -290.53915 -346.8256
 -288.5664  -306.06442 -292.27225 -291.90662 -299.775   -297.4967
 -284.7883  -298.68353 -286.00775 -289.91342]
Action: 19  Q-values: [-288.60593 -288.56018 -297.57285 -327.49686 -284.70587 -290.04465
 -299.36407 -301.35593 -301.759   -294.76254 -302.5492  -294.56174
 -296.5778  -298.8739  -299.59286 -299.0204  -291.1365  -296.81537
 -282.66727 -307.73367 -298.83502 -291.53888 -294.23856 -285.23337
 -286.1464  -351.98813 -286.53433 -299.54282 -295.1464  -335.8542
 -284.0462  -304.98273 -293.3576  -292.1773  -304.98517 -299.62314
 -286.37103 -302.2736  -296.02728 -292.64664]
Action: 17  Q-values: [-280.5588  -287.90842 -290.86658 -322.38242 -279.9099  -288.15332
 -297.25684 -295.1971  -297.63388 -286.56882 -297.80188 -289.44693
 -296.28622 -296.90314 -300.83636 -288.91443 -278.15097 -287.102
 -337.85022 -297.45154 -293.6521  -289.7644  -284.90436 -279.26367
 -280.81454 -352.07037 -281.80032 -292.49557 -281.41556 -336.90915
 -284.99152 -301.5433  -287.6559  -290.7961  -298.47784 -295.4705
 -286.23804 -285.87488 -282.45847 -285.10394]
Action: 25  Q-values: [-283.6636  -280.65915 -287.0453  -325.49786 -270.23654 -286.29135
 -288.83917 -286.27    -299.16278 -284.40735 -289.04767 -285.67538
 -291.87552 -290.8657  -297.84827 -284.3244  -337.64957 -279.59387
 -328.2153  -291.6828  -285.59103 -285.51544 -284.94733 -268.1597
 -267.93118 -340.0507  -272.34515 -285.64066 -280.81784 -331.67264
 -279.8652  -290.32352 -281.68555 -281.2176  -289.87766 -285.91205
 -282.09827 -283.06052 -281.0793  -278.0289 ]
Action: 5  Q-values: [-304.83777 -294.6503  -300.80475 -344.40353 -275.73492 -294.57993
 -297.71103 -292.94574 -306.41824 -288.97864 -301.89944 -298.05063
 -301.67874 -297.9151  -297.35266 -291.85764 -350.24225 -290.15857
 -347.56396 -301.18854 -289.11298 -299.09915 -298.5345  -290.55508
 -344.98215 -360.7368  -292.96494 -293.39734 -290.98776 -337.34995
 -286.44666 -301.1107  -302.27194 -305.35373 -300.661   -294.91275
 -292.28217 -309.6027  -297.51425 -287.6774 ]
Action: 29  Q-values: [-289.26645 -286.0794  -277.03845 -336.62216 -340.80606 -283.4403
 -291.12192 -288.64624 -296.54773 -281.89633 -293.58054 -288.07013
 -287.81622 -295.7904  -297.19824 -289.38788 -333.37253 -275.83682
 -335.578   -285.3647  -281.4405  -285.9982  -278.8383  -278.02304
 -333.27335 -346.53055 -276.6738  -285.5579  -275.07535 -325.1195
 -283.09067 -286.1271  -280.0653  -292.98428 -289.0311  -289.1504
 -277.8556  -296.18323 -287.94656 -285.98697]
Action: 6  Q-values: [-288.84018 -268.84286 -278.58127 -350.16278 -331.85873 -267.16266
 -280.94794 -274.74384 -303.10776 -275.6153  -286.20096 -276.68634
 -283.80377 -289.09006 -286.26212 -271.57977 -340.82632 -275.68005
 -332.7252  -295.47534 -272.40372 -291.75952 -299.9687  -267.2874
 -333.2036  -350.28644 -283.80554 -301.7159  -342.11182 -323.5633
 -283.3627  -280.03506 -289.29813 -287.9902  -303.5761  -298.72153
 -294.79697 -301.0336  -291.59842 -289.98022]
Action: 18  Q-values: [-289.90256 -275.37204 -285.52603 -343.6827  -347.24823 -333.74847
 -291.36804 -286.35977 -294.74936 -284.8278  -292.16885 -277.5525
 -284.54074 -291.4016  -290.00238 -276.60672 -343.79553 -262.99957
 -328.8284  -299.5225  -273.32236 -285.68698 -294.69885 -264.47662
 -324.723   -349.96097 -273.51932 -281.5405  -336.8442  -327.17294
 -282.7295  -281.51004 -286.30908 -284.52365 -289.68506 -281.87802
 -279.9639  -292.42215 -284.92044 -283.95227]
Action: 24  Q-values: [-284.52298 -273.3758  -291.1381  -331.78595 -325.12842 -327.8501
 -284.3717  -279.14066 -280.46597 -280.60748 -276.0577  -265.11868
 -281.22473 -278.0586  -277.70108 -272.15387 -340.1414  -322.9341
 -322.1744  -297.80472 -266.32135 -282.1743  -277.29556 -256.1712
 -321.78098 -345.77216 -270.11142 -268.84842 -329.51794 -323.43808
 -270.82117 -275.05475 -279.24225 -277.2309  -276.4737  -276.0684
 -274.3895  -285.4323  -283.91266 -274.7176 ]
Action: 31  Q-values: [-273.41776 -275.24203 -290.19318 -323.42453 -327.3903  -327.80844
 -278.1718  -276.215   -278.24585 -263.026   -273.36813 -270.15305
 -273.68423 -280.02866 -273.13928 -269.99677 -330.05344 -316.594
 -310.62366 -292.46606 -270.0501  -269.02496 -279.65683 -318.51865
 -308.1023  -327.84067 -263.95374 -266.7237  -330.2509  -324.2942
 -257.3953  -268.86136 -284.185   -275.17212 -272.21622 -268.85635
 -269.3307  -278.1205  -275.22098 -272.4604 ]
Action: 37  Q-values: [-273.3429  -278.06873 -283.64334 -308.01797 -319.69965 -316.4354
 -264.9449  -268.12338 -266.8358  -266.6574  -255.39769 -275.94678
 -266.3416  -282.29996 -265.91187 -265.3701  -326.6802  -308.7447
 -318.14493 -271.56293 -257.83557 -267.74384 -262.36984 -327.60516
 -321.35416 -327.27512 -275.21265 -264.20978 -330.84396 -311.31052
 -337.10953 -282.85876 -281.26984 -275.2851  -265.20462 -263.56375
 -255.35193 -283.20526 -282.55402 -268.43994]
Action: 15  Q-values: [-266.6228  -275.4784  -296.8772  -297.7383  -342.40427 -330.29172
 -267.80774 -264.67383 -270.23294 -259.99222 -253.90376 -270.37582
 -271.51395 -274.64783 -253.65216 -258.2844  -324.29083 -312.49524
 -322.27936 -280.138   -275.2229  -264.61163 -272.74677 -329.27182
 -316.7441  -335.26447 -275.1548  -271.80728 -327.2399  -334.73538
 -338.5174  -272.41165 -290.23734 -269.65802 -264.7337  -268.11414
 -340.33997 -281.15564 -265.7278  -256.7327 ]
Action: 1  Q-values: [-251.99168 -267.96637 -277.00543 -299.15387 -332.10602 -323.67285
 -260.63452 -253.41785 -258.36203 -274.36948 -281.09485 -263.40042
 -256.16718 -273.07193 -330.7224  -260.42972 -333.61453 -317.40884
 -318.06168 -290.81366 -261.11716 -267.28598 -268.6062  -324.77164
 -316.87305 -331.76794 -279.3151  -282.22797 -338.20804 -338.1726
 -333.31842 -280.91788 -283.49332 -273.22144 -254.02263 -263.49484
 -339.7615  -282.3924  -259.31232 -257.41013]
Action: 16  Q-values: [-313.03912 -245.50275 -261.91617 -309.28036 -301.35602 -316.2947
 -257.00165 -254.43625 -242.94997 -265.0394  -258.1417  -268.95074
 -266.1285  -260.67047 -318.78384 -239.97716 -312.41437 -295.81723
 -307.60123 -277.44656 -255.74239 -258.97916 -253.08783 -311.0375
 -332.88272 -307.6004  -264.74115 -265.09097 -321.43222 -314.25836
 -334.4648  -284.27835 -258.82568 -254.74411 -243.1299  -252.87045
 -320.14423 -264.0243  -254.17451 -252.6734 ]
Action: 35  Q-values: [-298.5233  -244.43149 -276.2561  -288.34766 -300.18155 -297.80795
 -246.37872 -246.08766 -256.54886 -247.85509 -247.34196 -248.03708
 -255.5312  -246.49152 -326.2752  -307.1434  -308.0392  -300.92642
 -290.01636 -269.61017 -239.86751 -232.63127 -238.07796 -292.2783
 -294.4861  -314.0348  -237.86345 -250.8527  -325.67587 -303.4523
 -311.34473 -268.09503 -259.16028 -239.55562 -229.01393 -241.50047
 -295.07178 -248.16176 -237.56004 -246.55112]
Action: 39  Q-values: [-287.601   -230.82597 -257.8877  -275.177   -300.99805 -291.29416
 -249.53278 -250.9087  -250.50348 -237.37639 -227.61826 -239.41977
 -249.75163 -233.605   -311.81128 -303.30664 -293.63324 -281.9891
 -283.43628 -252.64844 -234.0866  -227.78044 -230.30583 -280.7538
 -270.80328 -318.98947 -233.68625 -252.48238 -314.0912  -287.78833
 -298.17255 -262.51    -248.41693 -221.97002 -301.0962  -232.84315
 -296.18854 -249.29056 -218.01045 -238.21838]
Action: 23  Q-values: [-301.98294 -234.29793 -262.27115 -290.85968 -310.17508 -306.647
 -241.65623 -259.96872 -262.0566  -264.4191  -231.6609  -249.98926
 -255.39171 -239.73872 -311.98788 -302.76135 -297.8514  -289.36252
 -310.26385 -267.02298 -253.97449 -243.27087 -226.38693 -291.96667
 -293.71707 -319.28397 -253.2218  -286.537   -312.8584  -283.96716
 -302.92957 -269.77637 -258.9884  -234.3075  -301.9098  -244.68085
 -318.49338 -268.318   -298.99646 -248.60858]
Action: 2  Q-values: [-287.9009  -221.81699 -248.48363 -292.72034 -292.96896 -292.94345
 -227.1941  -237.7222  -252.25131 -253.51608 -252.41637 -228.7097
 -239.18048 -231.57864 -306.7036  -280.62573 -311.12338 -290.02322
 -302.03183 -239.74654 -254.06471 -238.7755  -292.58704 -283.62177
 -295.61792 -299.40906 -250.33041 -271.2439  -310.33435 -288.55426
 -303.5014  -255.96284 -243.13853 -225.42519 -291.48273 -238.82103
 -302.6988  -249.31245 -295.1391  -249.09969]
Action: 7  Q-values: [-301.9661  -288.61063 -265.80856 -291.63965 -303.11224 -311.33072
 -227.6445  -271.6951  -260.0646  -246.53792 -250.42813 -228.84752
 -250.808   -251.40587 -306.08755 -284.31784 -311.07916 -299.5733
 -284.86627 -255.95453 -265.1277  -256.82053 -325.9532  -274.97586
 -295.24344 -288.8093  -238.30371 -252.37938 -314.32892 -304.07104
 -289.2647  -251.5936  -246.88924 -235.7783  -306.36688 -247.55557
 -289.69296 -252.8733  -286.7     -242.68266]
Action: 27  Q-values: [-303.0687  -274.33282 -250.21857 -277.29938 -289.81198 -285.82086
 -285.22482 -267.68613 -239.80309 -238.82265 -243.42651 -216.87788
 -237.55109 -232.04478 -285.44055 -267.3507  -295.93152 -269.9559
 -266.06604 -239.84845 -254.75926 -246.15886 -319.18182 -251.159
 -283.25256 -276.49258 -206.29767 -243.72026 -301.30527 -290.63766
 -269.55923 -241.05344 -230.06088 -223.17516 -298.94122 -243.36728
 -285.8377  -237.80515 -276.41745 -233.32944]
Action: 33  Q-values: [-283.59277 -268.54498 -223.64645 -261.8693  -284.33975 -274.24356
 -277.50433 -242.7308  -208.57462 -228.46417 -222.76486 -208.2588
 -227.48347 -216.98532 -271.4358  -242.66272 -283.15213 -271.94885
 -269.1854  -236.14421 -226.32883 -224.62029 -305.58548 -258.6939
 -280.10303 -257.5026  -279.2973  -242.73335 -294.91522 -273.74872
 -270.26837 -232.35544 -207.12747 -214.43204 -291.8341  -226.80743
 -269.37363 -226.53078 -266.95825 -227.65692]
Action: 12  Q-values: [-266.94125 -295.00247 -231.00768 -284.17874 -274.72305 -281.72858
 -269.17374 -216.56836 -228.65959 -243.76526 -245.45573 -206.527
 -224.08438 -222.25716 -279.23544 -258.09967 -307.5891  -295.1154
 -279.4097  -229.52597 -239.26491 -227.98311 -297.6356  -257.8094
 -287.51447 -279.72095 -287.36377 -248.63298 -297.21878 -291.65906
 -299.81198 -240.5711  -285.51904 -229.42378 -283.78003 -243.04604
 -294.1313  -213.26285 -278.83716 -227.81146]
Action: 22  Q-values: [-271.79337 -274.17477 -217.24867 -256.75366 -276.99805 -287.24817
 -264.55273 -233.16966 -220.42586 -216.12573 -213.90169 -265.81866
 -214.41017 -209.32741 -277.25302 -249.70853 -277.66815 -264.6085
 -270.4929  -211.85324 -224.00076 -201.7625  -298.91327 -231.69629
 -275.94836 -267.23795 -269.4785  -220.3118  -291.28152 -284.27753
 -262.2508  -218.29565 -267.6007  -210.15129 -273.44278 -222.94524
 -277.37567 -210.94302 -262.89206 -219.40977]
Action: 11  Q-values: [-250.17395 -256.86185 -209.0678  -250.44592 -254.62335 -273.87125
 -250.52234 -205.28888 -208.4933  -197.94983 -192.06166 -259.8027
 -217.78203 -201.2965  -264.3271  -221.67413 -269.23105 -259.23145
 -262.41583 -210.3463  -204.70787 -275.7665  -271.4721  -246.66696
 -276.56186 -260.9703  -247.4616  -206.56007 -255.70424 -251.23882
 -252.84879 -223.58836 -267.37234 -205.7969  -272.9812  -197.87184
 -255.5149  -198.5248  -274.8175  -202.00153]
Action: 21  Q-values: [-259.13498 -254.18433 -203.80424 -241.79399 -248.91653 -263.6709
 -250.8936  -203.44965 -200.82957 -197.3466  -270.12875 -261.25027
 -222.42369 -190.73756 -261.55945 -213.86063 -257.42575 -251.25887
 -252.02075 -198.56134 -189.41377 -268.27258 -267.28586 -249.05347
 -268.85156 -271.79785 -255.76381 -206.03926 -249.41855 -240.3448
 -240.63596 -226.53479 -262.3326  -201.4781  -263.4054  -198.12282
 -253.10802 -194.63005 -254.81192 -197.16006]
Action: 14  Q-values: [-265.69608 -250.73169 -207.45923 -231.34906 -246.93106 -251.20528
 -250.23897 -190.21727 -202.00099 -198.66293 -261.31802 -246.4656
 -211.23691 -167.15688 -255.54584 -228.18623 -248.43791 -235.67612
 -250.82652 -201.26692 -272.55145 -256.30215 -266.76562 -236.52332
 -260.20358 -266.39697 -249.01485 -199.33405 -254.27737 -240.71443
 -245.24486 -211.84218 -278.73132 -185.41928 -258.6154  -179.65524
 -242.93262 -183.56328 -261.94934 -188.68713]
Action: 36  Q-values: [-247.45436 -232.64398 -183.10999 -218.56123 -217.26248 -246.98785
 -232.46384 -168.88544 -170.69438 -174.78477 -241.23439 -225.55287
 -176.92816 -228.86317 -244.83432 -219.62086 -229.15674 -231.19638
 -233.41182 -180.73547 -247.95268 -232.32999 -237.13115 -217.30222
 -250.29338 -245.12567 -238.35886 -181.76132 -240.95949 -244.34529
 -223.86531 -194.99553 -260.73267 -184.92693 -246.04211 -160.33405
 -222.92896 -164.91206 -249.06932 -182.28122]
Action: 9  Q-values: [-219.72922 -212.0679  -174.38344 -216.33977 -225.71812 -237.99188
 -216.57103 -159.32747 -156.20775 -164.20807 -236.25294 -211.06616
 -168.49065 -230.01741 -234.38225 -222.53831 -234.29059 -222.54836
 -234.48996 -173.57922 -240.37968 -221.30644 -229.7924  -209.0383
 -239.32953 -236.35992 -233.41576 -182.55957 -242.54759 -227.61607
 -209.99606 -182.75848 -251.96085 -168.3229  -239.15111 -246.85355
 -227.64404 -158.95628 -225.2862  -175.03613]
Action: 10  Q-values: [-209.29727 -213.15701 -155.29283 -209.81676 -214.99635 -229.24695
 -202.72678 -142.31836 -232.71347 -138.61469 -210.36063 -199.67099
 -151.0217  -204.45757 -238.56302 -211.70447 -218.57837 -203.83612
 -219.70688 -159.60277 -229.36841 -202.72145 -199.83919 -191.88971
 -231.51909 -216.7718  -222.80324 -164.9985  -229.38506 -208.54497
 -202.03963 -164.44687 -226.24545 -159.19234 -213.06265 -226.57341
 -212.98477 -150.51685 -214.3929  -156.15663]
Action: 40  Q-values: [-212.46292 -210.89351 -135.84572 -204.41109 -200.62355 -214.41884
 -201.06996 -133.88661 -215.79614 -223.53394 -194.65877 -178.96385
 -144.04184 -181.88255 -230.74977 -200.57335 -209.4553  -208.82332
 -207.78879 -139.77846 -226.9938  -185.61966 -186.9469  -182.58978
 -231.91818 -225.53577 -211.94977 -157.78227 -215.5495  -197.93484
 -194.82861 -161.88135 -215.0661  -155.68051 -204.76653 -211.1649
 -198.66289 -144.16153 -197.2993  -130.08524]
Action: 3  Q-values: [-226.30016 -214.54202 -123.69129 -179.7598  -210.92047 -213.1596
 -217.6507  -131.36252 -217.08025 -217.9183  -201.477   -184.50888
 -137.2192  -222.21094 -243.87082 -227.96497 -213.62495 -204.09445
 -222.1612  -148.9945  -214.67232 -185.17361 -191.1172  -172.27504
 -219.72498 -241.31187 -219.03249 -156.74979 -218.00244 -224.54498
 -197.38272 -147.54288 -234.02917 -158.33574 -219.7235  -212.01949
 -213.62527 -154.03802 -199.49934 -217.97655]
Action: 8  Q-values: [-185.25424  -181.87892  -199.25624  -178.87848  -177.73714  -196.54611
 -186.76254  -105.55251  -184.62671  -179.7594   -173.57246  -160.03331
 -113.63988  -180.8807   -174.34543  -205.50656  -179.76822  -184.33362
 -201.64832  -106.3353   -173.2887   -170.86375  -169.19707  -154.62114
 -192.2      -203.06496  -179.3301   -126.32836  -196.61903  -196.03601
 -169.78519  -138.16599  -185.18642  -126.507164 -173.03365  -187.78842
 -194.47772  -133.75511  -178.67534  -194.901   ]
Action: 20  Q-values: [-171.9339   -167.19315  -182.04283  -182.25482  -175.70905  -191.29053
 -154.57332  -179.61678  -185.40019  -173.27614  -163.47733  -143.58298
 -104.41632  -151.72147  -158.9468   -178.50053  -168.28125  -159.59778
 -170.71283   -88.57777  -169.30537  -157.39426  -159.19247  -138.20094
 -198.3357   -186.81735  -166.95834  -115.570175 -179.25952  -166.79669
 -164.37593   -95.19571  -149.90204  -109.78091  -158.6185   -157.17308
 -169.96472  -102.54455  -165.8082   -179.80328 ]
Action: 32  Q-values: [-153.21048 -141.0503  -150.88623 -144.40723 -145.15358 -157.25578
 -145.34143 -152.38713 -143.51453 -151.37967 -139.73167 -129.7113
  -78.8892  -151.63947 -159.78563 -155.11948 -143.53424 -154.39185
 -144.2151  -156.71411 -137.75098 -154.30945 -142.96352 -136.42874
 -161.69865 -165.99    -139.8178  -100.73774 -168.33035 -149.50291
 -159.06131  -72.06376 -150.05705  -96.676   -151.02757 -140.08183
 -143.59367  -75.06331 -161.79333 -168.7283 ]
Action: 38  Q-values: [-160.41656  -135.62157  -151.65034  -140.03935  -167.61102  -155.41022
 -153.33928  -154.50197  -148.67302  -148.07877  -143.64914  -140.75172
  -81.52389  -140.64328  -153.21309  -143.31076  -137.26897  -161.18124
 -149.88129  -142.50116  -152.74672  -144.45877  -139.91975  -131.23715
 -156.29625  -160.0241   -156.98737   -92.33976  -172.01517  -146.699
 -163.41597  -151.2726   -148.3886    -91.28537  -137.76913  -139.83504
 -153.45293   -74.473114 -149.8184   -161.16293 ]
Action: 34  Q-values: [-152.12457  -124.18563  -129.18622  -126.6511   -141.9747   -138.26688
 -146.91765  -144.36133  -154.07907  -138.8283   -142.28917  -126.02064
  -56.768185 -119.088165 -158.0195   -136.47514  -159.70866  -144.56133
 -150.64714  -130.31778  -141.64552  -140.21652  -133.08545  -125.78489
 -150.85979  -130.08829  -130.74971   -55.194584 -135.82573  -137.55006
 -128.41853  -151.34172  -139.43095   -54.681614 -121.435646 -138.66724
 -127.19573  -148.13603  -151.27629  -138.77094 ]
Action: 28  Q-values: [-106.250534  -75.347565 -102.01003   -94.4481   -119.891525 -112.34178
 -114.21146  -106.14218  -117.306595 -109.21551  -106.56106  -105.39802
  -35.738407 -100.39983  -113.44925  -123.89992  -110.34835  -101.67582
 -115.224686  -96.87682  -113.72158  -102.6919   -107.92555   -87.25803
 -112.12038  -110.5468    -99.051834  -25.429321  -87.73934  -121.9238
  -91.69173  -109.86985  -114.97439  -113.138725 -113.08042  -107.68234
  -87.733315 -101.28573  -110.06422  -106.18652 ]
Action: 13  Q-values: [-111.4341    -75.62023  -103.079475  -78.10874  -104.9273   -105.06371
  -96.43484   -94.53856  -100.60879  -103.39999   -96.42535  -109.014084
  -19.325048  -86.5428   -105.75255   -93.57453  -102.01178   -95.48149
 -100.27623  -100.64415   -98.86741   -98.51503   -96.9696    -64.17908
  -92.315834  -99.6685   -105.30382  -106.48233   -76.88862  -113.23212
  -98.47745   -90.30891  -120.0886   -106.38188  -104.20371  -100.61131
 -103.44515   -94.52856  -104.49054   -91.16863 ]
Action: 2  Q-values: [-11.987683 -10.199907 -11.408881 -10.980442 -12.469815 -11.852199
 -12.648889 -10.997032 -11.867834 -11.548359 -12.567231 -12.315055
 -11.711507 -11.610722 -12.783314 -10.601681 -11.574929 -10.436555
 -12.119308 -11.578425 -11.524526 -13.338337 -12.595983 -10.820019
 -11.257115 -11.635344 -11.319488 -11.030691 -11.551306 -13.269998
 -13.011682 -11.521436 -12.566608 -11.39482  -12.160249 -11.942941
 -12.476944 -12.528673 -12.637655 -10.594163]